<?xml version="1.0" encoding="UTF-8" standalone="no"?>
<svg
   xmlns:dc="http://purl.org/dc/elements/1.1/"
   xmlns:cc="http://creativecommons.org/ns#"
   xmlns:rdf="http://www.w3.org/1999/02/22-rdf-syntax-ns#"
   xmlns:svg="http://www.w3.org/2000/svg"
   xmlns="http://www.w3.org/2000/svg"
   xmlns:sodipodi="http://sodipodi.sourceforge.net/DTD/sodipodi-0.dtd"
   xmlns:inkscape="http://www.inkscape.org/namespaces/inkscape"
   version="1.1"
   id="Layer_1"
   x="0px"
   y="0px"
   width="82.93px"
   height="100px"
   viewBox="4.1465 -10.0 82.93 135.0"
   enable-background="new 0 0 82.93 100"
   xml:space="preserve"
   inkscape:version="0.48.4 r9939"
   sodipodi:docname="icon_.svg"><metadata
     id="metadata3156"><rdf:RDF><cc:Work
         rdf:about=""><dc:format>image/svg+xml</dc:format><dc:type
           rdf:resource="http://purl.org/dc/dcmitype/StillImage" /><dc:title></dc:title></cc:Work></rdf:RDF></metadata><defs
     id="defs3154" /><sodipodi:namedview
     pagecolor="#ffffff"
     bordercolor="#666666"
     borderopacity="1"
     objecttolerance="10"
     gridtolerance="10"
     guidetolerance="10"
     inkscape:pageopacity="0"
     inkscape:pageshadow="2"
     inkscape:window-width="800"
     inkscape:window-height="848"
     id="namedview3152"
     showgrid="false"
     inkscape:zoom="0.834386"
     inkscape:cx="111.46807"
     inkscape:cy="40.421338"
     inkscape:window-x="0"
     inkscape:window-y="24"
     inkscape:window-maximized="0"
     inkscape:current-layer="Layer_1" /><path
     d="m 74.053912,21.797737 c -16.208,-16.2069998 -42.396,-16.0759998 -58.604,0.132 -16.20799961,16.207 -16.32299961,42.454 -0.116,58.662 l 29.284,29.116003 29.347,-29.347003 c 16.208,-16.208 16.297,-42.355 0.089,-58.563 z m -29.325,54.134 c -13.789,0 -24.968,-11.179 -24.968,-24.968 0,-13.79 11.179,-24.969 24.968,-24.969 13.79,0 24.969,11.179 24.969,24.969 0,13.789 -11.179,24.968 -24.969,24.968 z"
     id="path3084"
     inkscape:connector-curvature="0"
     style="fill:#7d0d00;fill-opacity:1" /><text
     x="-2.0224452"
     y="-34.587883"
     font-size="5.0"
     font-weight="bold"
     id="text3148"
     style="font-size:5px;font-weight:bold;fill:#000000;font-family:'Helvetica Neue, Helvetica, Arial-Unicode, Arial, Sans-serif'">Created by Venkatesh Aiyulu</text>
<text
     x="-2.0224452"
     y="-29.587883"
     font-size="5.0"
     font-weight="bold"
     id="text3150"
     style="font-size:5px;font-weight:bold;fill:#000000;font-family:'Helvetica Neue, Helvetica, Arial-Unicode, Arial, Sans-serif'">from the Noun Project</text>
<path
     d="m 208.69221,12.259439 c -16.208,-16.207 -42.396,-16.076 -58.604,0.132 -16.208,16.207 -16.323,42.454 -0.116,58.662 l 29.284,29.116001 29.347,-29.347001 c 16.208,-16.208 16.297,-42.355 0.089,-58.563 z m -29.325,54.134 c -13.789,0 -24.968,-11.179001 -24.968,-24.968 0,-13.789999 11.179,-24.969 24.968,-24.969 13.79,0 24.969,11.179001 24.969,24.969 0,13.788999 -11.179,24.968 -24.969,24.968 z"
     id="path3084-8"
     inkscape:connector-curvature="0"
     style="fill:#a3821e;fill-opacity:1" /><path
     d="m 338.18176,14.441608 c -16.208,-16.2070001 -42.396,-16.0760001 -58.604,0.132 -16.208,16.207 -16.323,42.454 -0.116,58.662 l 29.284,29.116002 29.347,-29.347002 c 16.208,-16.208 16.297,-42.355 0.089,-58.563 z m -29.325,54.134 c -13.789,0 -24.968,-11.179001 -24.968,-24.968 0,-13.789999 11.179,-24.969 24.968,-24.969 13.79,0 24.969,11.179001 24.969,24.969 0,13.788999 -11.179,24.968 -24.969,24.968 z"
     id="path3084-1"
     inkscape:connector-curvature="0"
     style="fill:#dc3c00;fill-opacity:1" /><path
     d="m 70.469894,162.02635 c -16.208,-16.207 -42.396,-16.076 -58.604,0.132 -16.2079995,16.207 -16.3229995,42.454 -0.116,58.662 l 29.284,29.116 29.347,-29.347 c 16.208,-16.208 16.297,-42.355 0.089,-58.563 z m -29.325,54.134 c -13.789,0 -24.968,-11.179 -24.968,-24.968 0,-13.79 11.179,-24.969 24.968,-24.969 13.79,0 24.968999,11.179 24.968999,24.969 0,13.789 -11.178999,24.968 -24.968999,24.968 z"
     id="path3084-6"
     inkscape:connector-curvature="0"
     style="fill:#03374d;fill-opacity:0.84462154" /><path
     d="m 212.3343,158.59415 c -16.208,-16.207 -42.396,-16.076 -58.604,0.132 -16.208,16.207 -16.323,42.454 -0.116,58.662 l 29.284,29.116 29.347,-29.347 c 16.208,-16.208 16.297,-42.355 0.089,-58.563 z m -29.325,54.134 c -13.789,0 -24.968,-11.179 -24.968,-24.968 0,-13.79 11.179,-24.969 24.968,-24.969 13.79,0 24.969,11.179 24.969,24.969 0,13.789 -11.179,24.968 -24.969,24.968 z"
     id="path3084-0"
     inkscape:connector-curvature="0"
     style="fill:#005d00;fill-opacity:1" /><path
     d="m 337.0377,158.59415 c -16.208,-16.207 -42.396,-16.076 -58.604,0.132 -16.208,16.207 -16.323,42.454 -0.116,58.662 l 29.284,29.11599 29.347,-29.34699 c 16.208,-16.208 16.297,-42.355 0.089,-58.563 z m -29.325,54.134 c -13.789,0 -24.968,-11.17901 -24.968,-24.968 0,-13.79 11.179,-24.969 24.968,-24.969 13.79,0 24.96899,11.179 24.96899,24.969 0,13.78899 -11.17899,24.968 -24.96899,24.968 z"
     id="path3084-16"
     inkscape:connector-curvature="0"
     style="fill:#333333" /></svg>